…
##### **Types of events that are most harmful with respect to population health** #####  


```r
pop_health <- mod_data %>%
    select(STATE, EVTYPE, FATALITIES, INJURIES) %>% 
    group_by(EVTYPE) %>% 
    summarise(total_fatalities = sum(FATALITIES), total_injuries = sum(INJURIES)) %>% 
    arrange(desc(total_fatalities), desc(total_injuries))
pop_health
```

```
## # A tibble: 985 x 3
##    EVTYPE         total_fatalities total_injuries
##    <chr>                     <dbl>          <dbl>
##  1 TORNADO                    5633          91346
##  2 EXCESSIVE HEAT             1903           6525
##  3 FLASH FLOOD                 978           1777
##  4 HEAT                        937           2100
##  5 LIGHTNING                   816           5230
##  6 TSTM WIND                   504           6957
##  7 FLOOD                       470           6789
##  8 RIP CURRENT                 368            232
##  9 HIGH WIND                   248           1137
## 10 AVALANCHE                   224            170
## # ... with 975 more rows
```
…
```r
FLOOD <- total_dmg %>%
    filter(EVTYPE == "FLOOD") %>% 
    group_by(STATE)

FLOOD_BY_STATE <- FLOOD %>%
    summarise(TOTAL_DAMAGE = sum(TOTAL_DMG_in_Million)) %>% 
    arrange(desc(TOTAL_DAMAGE))
FLOOD_BY_STATE
```

```
## # A tibble: 55 x 2
##    STATE TOTAL_DAMAGE
##    <chr>        <dbl>
##  1 CA         117378.
##  2 TN           4250.
##  3 ND           3990.
##  4 IA           2970.
##  5 NJ           2112.
##  6 FL           1824.
##  7 IN           1547.
##  8 MN           1398.
##  9 NY           1329.
## 10 VT           1112.
## # ... with 45 more rows
```
…
##### **Find out which state's population health was the most harmful affected by TORNADO** #####  


```r
TORNADO_BY_STATE <- mod_data %>% 
    filter(EVTYPE == "TORNADO") %>% 
    group_by(STATE) %>% 
    summarise(TOTAL_FATALITIES = sum(FATALITIES), TOTAL_INJURIES = sum(INJURIES)) %>% 
    arrange(desc(TOTAL_FATALITIES))
TORNADO_BY_STATE
```

```
## # A tibble: 52 x 3
##    STATE TOTAL_FATALITIES TOTAL_INJURIES
##    <chr>            <dbl>          <dbl>
##  1 AL                 617           7929
##  2 TX                 538           8207
##  3 MS                 450           6244
##  4 MO                 388           4330
##  5 AR                 379           5116
##  6 TN                 368           4748
##  7 OK                 296           4829
##  8 IN                 252           4224
##  9 MI                 243           3362
## 10 KS                 236           2721
## # ... with 42 more rows
```
…
